{"count":200,"next":"https:\/\/cryptopanic.com\/api\/pro\/v1\/posts\/?auth_token=a6ddf5dba1c999bf140e128e146797ce2a515443&currencies=BTC%2CETH&kind=news&public=true&page=2","previous":null,"results":[{"kind":"news","domain":"feeds2.benzinga.com","source":{"title":"Benzinga","region":"en","domain":"feeds2.benzinga.com","path":null,"type":"feed"},"title":"Bitcoin Set for April Price Surge as Fed Signals Monetary Easing","published_at":"2025-03-30T17:00:44Z","slug":"Bitcoin-Set-for-April-Price-Surge-as-Fed-Signals-Monetary-Easing","currencies":[{"code":"BTC","title":"Bitcoin","slug":"bitcoin","url":"https:\/\/cryptopanic.com\/news\/bitcoin\/"}],"id":20895765,"url":"https:\/\/cryptopanic.com\/news\/20895765\/Bitcoin-Set-for-April-Price-Surge-as-Fed-Signals-Monetary-Easing?mtm_campaign=API-OPA","created_at":"2025-03-30T17:00:44Z","votes":{"negative":0,"positive":0,"important":0,"liked":0,"disliked":0,"lol":0,"toxic":0,"saved":0,"comments":0}},{"kind":"news","domain":"dailyhodl.com","source":{"title":"The Daily Hodl","region":"en","domain":"dailyhodl.com","path":null,"type":"feed"},"title":"French State-Owned Bank Rolls Out $27,000,000 Initiative To Invest in Crypto Projects: Report","published_at":"2025-03-30T16:55:17Z","slug":"French-State-Owned-Bank-Rolls-Out-27000000-Initiative-To-Invest-in-Crypto-Projects-Report","currencies":[{"code":"BTC","title":"Bitcoin","slug":"bitcoin","url":"https:\/\/cryptopanic.com\/news\/bitcoin\/"},{"code":"MORPHO","title":"Morpho","slug":"morpho","url":"https:\/\/cryptopanic.com\/news\/morpho\/"}],"id":20895730,"url":"https:\/\/cryptopanic.com\/news\/20895730\/French-State-Owned-Bank-Rolls-Out-27000000-Initiative-To-Invest-in-Crypto-Projects-Report?mtm_campaign=API-OPA","created_at":"2025-03-30T16:55:17Z","votes":{"negative":0,"positive":0,"important":0,"liked":0,"disliked":0,"lol":0,"toxic":0,"saved":0,"comments":0}},{"kind":"news","domain":"cointelegraph.com","source":{"title":"CoinTelegraph","region":"en","domain":"cointelegraph.com","path":null,"type":"feed"},"title":"Binance debuts centralized exchange to decentralized exchange trades","published_at":"2025-03-30T16:46:57Z","slug":"Binance-debuts-centralized-exchange-to-decentralized-exchange-trades","currencies":[{"code":"ETH","title":"Ethereum","slug":"ethereum","url":"https:\/\/cryptopanic.com\/news\/ethereum\/"},{"code":"BNB","title":"BNB","slug":"binancecoin","url":"https:\/\/cryptopanic.com\/news\/binancecoin\/"},{"code":"SOL","title":"Solana","slug":"solana","url":"https:\/\/cryptopanic.com\/news\/solana\/"},{"code":"USDC","title":"USDC","slug":"usd-coin","url":"https:\/\/cryptopanic.com\/news\/usd-coin\/"}],"id":20895722,"url":"https:\/\/cryptopanic.com\/news\/20895722\/Binance-debuts-centralized-exchange-to-decentralized-exchange-trades?mtm_campaign=API-OPA","created_at":"2025-03-30T16:46:57Z","votes":{"negative":0,"positive":0,"important":0,"liked":0,"disliked":0,"lol":0,"toxic":0,"saved":0,"comments":0}},{"kind":"news","domain":"bitcoin.com","source":{"title":"Bitcoin.com","region":"en","domain":"bitcoin.com","path":null,"type":"feed"},"title":"Bitcoin Mining Made Predictable: Soluna, Luxor Streamline Bitmine\u2019s Growth","published_at":"2025-03-30T16:41:13Z","slug":"Bitcoin-Mining-Made-Predictable-Soluna-Luxor-Streamline-Bitmines-Growth","currencies":[{"code":"BTC","title":"Bitcoin","slug":"bitcoin","url":"https:\/\/cryptopanic.com\/news\/bitcoin\/"}],"id":20895715,"url":"https:\/\/cryptopanic.com\/news\/20895715\/Bitcoin-Mining-Made-Predictable-Soluna-Luxor-Streamline-Bitmines-Growth?mtm_campaign=API-OPA","created_at":"2025-03-30T16:41:13Z","votes":{"negative":0,"positive":0,"important":0,"liked":0,"disliked":0,"lol":0,"toxic":0,"saved":0,"comments":0}},{"kind":"news","domain":"thecoinrepublic.com","source":{"title":"The Coin Republic","region":"en","domain":"thecoinrepublic.com","path":null,"type":"feed"},"title":"Stablecoin Market Cap Passes $200B, Ethereum, TRON Dominate","published_at":"2025-03-30T16:36:00Z","slug":"Stablecoin-Market-Cap-Passes-200B-Ethereum-TRON-Dominate","currencies":[{"code":"ETH","title":"Ethereum","slug":"ethereum","url":"https:\/\/cryptopanic.com\/news\/ethereum\/"},{"code":"USDT","title":"Tether","slug":"tether","url":"https:\/\/cryptopanic.com\/news\/tether\/"},{"code":"USDC","title":"USDC","slug":"usd-coin","url":"https:\/\/cryptopanic.com\/news\/usd-coin\/"},{"code":"TRX","title":"TRON","slug":"tron","url":"https:\/\/cryptopanic.com\/news\/tron\/"},{"code":"USDS","title":"USDS","slug":"usds","url":"https:\/\/cryptopanic.com\/news\/usds\/"},{"code":"ENA","title":"Ethena","slug":"ethena","url":"https:\/\/cryptopanic.com\/news\/ethena\/"}],"id":20895714,"url":"https:\/\/cryptopanic.com\/news\/20895714\/Stablecoin-Market-Cap-Passes-200B-Ethereum-TRON-Dominate?mtm_campaign=API-OPA","created_at":"2025-03-30T16:36:00Z","votes":{"negative":0,"positive":0,"important":0,"liked":0,"disliked":0,"lol":0,"toxic":0,"saved":0,"comments":0}},{"kind":"news","domain":"cryptodaily.co.uk","source":{"title":"CryptoDaily","region":"en","domain":"cryptodaily.co.uk","path":null,"type":"feed"},"title":"Rollblock Price Prediction: Can RBLK Soar From $0.062 To $1 In 2025? Solana and Cardano Holders Think So","published_at":"2025-03-30T16:31:53Z","slug":"Rollblock-Price-Prediction-Can-RBLK-Soar-From-0062-To-1-In-2025-Solana-and-Cardano-Holders-Think-So","currencies":[{"code":"ETH","title":"Ethereum","slug":"ethereum","url":"https:\/\/cryptopanic.com\/news\/ethereum\/"},{"code":"SOL","title":"Solana","slug":"solana","url":"https:\/\/cryptopanic.com\/news\/solana\/"},{"code":"ADA","title":"Cardano","slug":"cardano","url":"https:\/\/cryptopanic.com\/news\/cardano\/"}],"id":20895705,"url":"https:\/\/cryptopanic.com\/news\/20895705\/Rollblock-Price-Prediction-Can-RBLK-Soar-From-0062-To-1-In-2025-Solana-and-Cardano-Holders-Think-So?mtm_campaign=API-OPA","created_at":"2025-03-30T16:31:53Z","votes":{"negative":0,"positive":0,"important":0,"liked":0,"disliked":0,"lol":0,"toxic":0,"saved":0,"comments":0}},{"kind":"news","domain":"coinpedia.org","source":{"title":"coinpedia","region":"en","domain":"coinpedia.org","path":null,"type":"feed"},"title":"Ethereum Loses an Important Support\u2014Is ETH Price Heading Back to $1500?","published_at":"2025-03-30T16:29:32Z","slug":"Ethereum-Loses-an-Important-SupportIs-ETH-Price-Heading-Back-to-1500","currencies":[{"code":"ETH","title":"Ethereum","slug":"ethereum","url":"https:\/\/cryptopanic.com\/news\/ethereum\/"}],"id":20895707,"url":"https:\/\/cryptopanic.com\/news\/20895707\/Ethereum-Loses-an-Important-SupportIs-ETH-Price-Heading-Back-to-1500?mtm_campaign=API-OPA","created_at":"2025-03-30T16:29:32Z","votes":{"negative":0,"positive":0,"important":0,"liked":0,"disliked":0,"lol":0,"toxic":0,"saved":0,"comments":0}},{"kind":"news","domain":"@DaanCrypto","source":{"title":"Twitter - daancrypto","region":"en","domain":"DaanCrypto","path":"@daancrypto","type":"twitter"},"title":"The First Quarter of 2025 is coming to an end.\n\n$BTC worst Q1 since 2018\/2020. Overall quarter not horrible.\n\n$ETH worst Q1 since 2018, Worst overall quarter in 2.5 years.","published_at":"2025-03-30T16:02:00Z","slug":"The-First-Quarter-of-2025-is-coming-to-an-end-BTC-worst-Q1-since-20182020-Overall-quarter-not-horrible-ETH-worst-Q1-since-2018-Worst-overall-quarter-in-25-years","currencies":[{"code":"ETH","title":"Bridged Ether (StarkGate)","slug":"bridged-wrapped-ether-starkgate","url":"https:\/\/cryptopanic.com\/news\/bridged-wrapped-ether-starkgate\/"},{"code":"BTC","title":"Osmosis allBTC","slug":"osmosis-allbtc","url":"https:\/\/cryptopanic.com\/news\/osmosis-allbtc\/"}],"id":20895644,"url":"https:\/\/cryptopanic.com\/news\/20895644\/The-First-Quarter-of-2025-is-coming-to-an-end-BTC-worst-Q1-since-20182020-Overall-quarter-not-horrible-ETH-worst-Q1-since-2018-Worst-overall-quarter-in-25-years?mtm_campaign=API-OPA","created_at":"2025-03-30T16:02:00Z","votes":{"negative":0,"positive":0,"important":0,"liked":0,"disliked":0,"lol":0,"toxic":0,"saved":0,"comments":0}},{"kind":"news","domain":"decrypt.co","source":{"title":"Decrypt","region":"en","domain":"decrypt.co","path":null,"type":"feed"},"title":"This Week in Crypto Games: 'Off the Grid' Token, GameStop Goes Bitcoin, SEC Clears Immutable","published_at":"2025-03-30T16:01:02Z","slug":"This-Week-in-Crypto-Games-Off-the-Grid-Token-GameStop-Goes-Bitcoin-SEC-Clears-Immutable","currencies":[{"code":"BTC","title":"Bitcoin","slug":"bitcoin","url":"https:\/\/cryptopanic.com\/news\/bitcoin\/"}],"id":20895629,"url":"https:\/\/cryptopanic.com\/news\/20895629\/This-Week-in-Crypto-Games-Off-the-Grid-Token-GameStop-Goes-Bitcoin-SEC-Clears-Immutable?mtm_campaign=API-OPA","created_at":"2025-03-30T16:01:02Z","votes":{"negative":0,"positive":0,"important":0,"liked":0,"disliked":0,"lol":0,"toxic":0,"saved":0,"comments":0}},{"kind":"news","domain":"ambcrypto.com","source":{"title":"AMBCrypto","region":"en","domain":"ambcrypto.com","path":null,"type":"feed"},"title":"Gold at record highs: A threat for Bitcoin or a chance to reclaim $100k?","published_at":"2025-03-30T16:00:18Z","slug":"Gold-at-record-highs-A-threat-for-Bitcoin-or-a-chance-to-reclaim-100k","currencies":[{"code":"BTC","title":"Bitcoin","slug":"bitcoin","url":"https:\/\/cryptopanic.com\/news\/bitcoin\/"},{"code":"$1","title":"just buy $1 worth of this coin","slug":"just-buy-1-worth-of-this-coin","url":"https:\/\/cryptopanic.com\/news\/just-buy-1-worth-of-this-coin\/"}],"id":20895617,"url":"https:\/\/cryptopanic.com\/news\/20895617\/Gold-at-record-highs-A-threat-for-Bitcoin-or-a-chance-to-reclaim-100k?mtm_campaign=API-OPA","created_at":"2025-03-30T16:00:18Z","votes":{"negative":0,"positive":0,"important":0,"liked":0,"disliked":0,"lol":0,"toxic":0,"saved":0,"comments":0}},{"kind":"news","domain":"cryptodaily.co.uk","source":{"title":"CryptoDaily","region":"en","domain":"cryptodaily.co.uk","path":null,"type":"feed"},"title":"Crypto Price Analysis April 2025: Bitcoin (BTC), Ethereum (ETH), Solana (SOL), Dogecoin (DOGE), Remittix (RTX), Cardano (ADA), Chainlink (LINK), Toncoin (TON)","published_at":"2025-03-30T15:55:07Z","slug":"Crypto-Price-Analysis-April-2025-Bitcoin-BTC-Ethereum-ETH-Solana-SOL-Dogecoin-DOGE-Remittix-RTX-Cardano-ADA-Chainlink-LINK-Toncoin-TON","currencies":[{"code":"BTC","title":"Bitcoin","slug":"bitcoin","url":"https:\/\/cryptopanic.com\/news\/bitcoin\/"},{"code":"ETH","title":"Ethereum","slug":"ethereum","url":"https:\/\/cryptopanic.com\/news\/ethereum\/"},{"code":"SOL","title":"Solana","slug":"solana","url":"https:\/\/cryptopanic.com\/news\/solana\/"},{"code":"DOGE","title":"Dogecoin","slug":"dogecoin","url":"https:\/\/cryptopanic.com\/news\/dogecoin\/"},{"code":"ADA","title":"Cardano","slug":"cardano","url":"https:\/\/cryptopanic.com\/news\/cardano\/"},{"code":"TON","title":"Toncoin","slug":"the-open-network","url":"https:\/\/cryptopanic.com\/news\/the-open-network\/"},{"code":"LINK","title":"Chainlink","slug":"chainlink","url":"https:\/\/cryptopanic.com\/news\/chainlink\/"}],"id":20895616,"url":"https:\/\/cryptopanic.com\/news\/20895616\/Crypto-Price-Analysis-April-2025-Bitcoin-BTC-Ethereum-ETH-Solana-SOL-Dogecoin-DOGE-Remittix-RTX-Cardano-ADA-Chainlink-LINK-Toncoin-TON?mtm_campaign=API-OPA","created_at":"2025-03-30T15:55:07Z","votes":{"negative":0,"positive":0,"important":0,"liked":0,"disliked":0,"lol":0,"toxic":0,"saved":0,"comments":0}},{"kind":"news","domain":"cryptopolitan.com","source":{"title":"Feed - Cryptopolitan.Com","region":"en","domain":"cryptopolitan.com","path":null,"type":"feed"},"title":"Ethereum whales on MakerDAO face $238M liquidation risk as ETH nears critical level","published_at":"2025-03-30T15:40:33Z","slug":"Ethereum-whales-on-MakerDAO-face-238M-liquidation-risk-as-ETH-nears-critical-level","currencies":[{"code":"ETH","title":"Ethereum","slug":"ethereum","url":"https:\/\/cryptopanic.com\/news\/ethereum\/"},{"code":"DAI","title":"Dai","slug":"dai","url":"https:\/\/cryptopanic.com\/news\/dai\/"}],"id":20895605,"url":"https:\/\/cryptopanic.com\/news\/20895605\/Ethereum-whales-on-MakerDAO-face-238M-liquidation-risk-as-ETH-nears-critical-level?mtm_campaign=API-OPA","created_at":"2025-03-30T15:40:33Z","votes":{"negative":0,"positive":0,"important":0,"liked":0,"disliked":0,"lol":0,"toxic":0,"saved":0,"comments":0}},{"kind":"news","domain":"bitcoin.com","source":{"title":"Bitcoin.com","region":"en","domain":"bitcoin.com","path":null,"type":"feed"},"title":"Acting SEC Chair Rejects Enforcement, First US Bank-Issued Stablecoin, and More \u2014 Week in Review","published_at":"2025-03-30T15:15:09Z","slug":"Acting-SEC-Chair-Rejects-Enforcement-First-US-Bank-Issued-Stablecoin-and-More-Week-in-Review","currencies":[{"code":"BTC","title":"Bitcoin","slug":"bitcoin","url":"https:\/\/cryptopanic.com\/news\/bitcoin\/"},{"code":"S","title":"Sonic (prev. FTM)","slug":"sonic-3","url":"https:\/\/cryptopanic.com\/news\/sonic-3\/"}],"id":20895552,"url":"https:\/\/cryptopanic.com\/news\/20895552\/Acting-SEC-Chair-Rejects-Enforcement-First-US-Bank-Issued-Stablecoin-and-More-Week-in-Review?mtm_campaign=API-OPA","created_at":"2025-03-30T15:15:09Z","votes":{"negative":0,"positive":0,"important":0,"liked":0,"disliked":0,"lol":0,"toxic":0,"saved":0,"comments":0}},{"kind":"news","domain":"cryptodnes.bg","source":{"title":"cryptodnes","region":"en","domain":"cryptodnes.bg","path":null,"type":"feed"},"title":"Bitcoin Could Hit $150,000 by Year-End, Says Financial Expert","published_at":"2025-03-30T15:00:57Z","slug":"Bitcoin-Could-Hit-150000-by-Year-End-Says-Financial-Expert","currencies":[{"code":"BTC","title":"Bitcoin","slug":"bitcoin","url":"https:\/\/cryptopanic.com\/news\/bitcoin\/"}],"id":20895586,"url":"https:\/\/cryptopanic.com\/news\/20895586\/Bitcoin-Could-Hit-150000-by-Year-End-Says-Financial-Expert?mtm_campaign=API-OPA","created_at":"2025-03-30T15:00:57Z","votes":{"negative":0,"positive":0,"important":0,"liked":0,"disliked":0,"lol":0,"toxic":0,"saved":0,"comments":0}},{"kind":"news","domain":"ambcrypto.com","source":{"title":"AMBCrypto","region":"en","domain":"ambcrypto.com","path":null,"type":"feed"},"title":"Is Bitcoin\u2019s rebound near as key area rises? Assessing\u2026","published_at":"2025-03-30T15:00:34Z","slug":"Is-Bitcoins-rebound-near-as-key-area-rises-Assessing","currencies":[{"code":"BTC","title":"Bitcoin","slug":"bitcoin","url":"https:\/\/cryptopanic.com\/news\/bitcoin\/"},{"code":"$1","title":"just buy $1 worth of this coin","slug":"just-buy-1-worth-of-this-coin","url":"https:\/\/cryptopanic.com\/news\/just-buy-1-worth-of-this-coin\/"}],"id":20895524,"url":"https:\/\/cryptopanic.com\/news\/20895524\/Is-Bitcoins-rebound-near-as-key-area-rises-Assessing?mtm_campaign=API-OPA","created_at":"2025-03-30T15:00:34Z","votes":{"negative":0,"positive":0,"important":0,"liked":0,"disliked":0,"lol":0,"toxic":0,"saved":0,"comments":0}},{"kind":"news","domain":"u.today","votes":{"negative":1,"positive":0,"important":0,"liked":0,"disliked":1,"lol":1,"toxic":0,"saved":0,"comments":0},"source":{"title":"U.Today","region":"en","domain":"u.today","path":null,"type":"feed"},"title":"Ethereum (ETH) Price Prediction for March 30","published_at":"2025-03-30T14:43:00Z","slug":"Ethereum-ETH-Price-Prediction-for-March-30","currencies":[{"code":"ETH","title":"Ethereum","slug":"ethereum","url":"https:\/\/cryptopanic.com\/news\/ethereum\/"}],"id":20895492,"url":"https:\/\/cryptopanic.com\/news\/20895492\/Ethereum-ETH-Price-Prediction-for-March-30?mtm_campaign=API-OPA","created_at":"2025-03-30T14:43:00Z"},{"kind":"news","domain":"zycrypto.com","source":{"title":"ZyCrypto","region":"en","domain":"zycrypto.com","path":null,"type":"feed"},"title":"Ethereum Whales In Buying Spree As Bulls Attempt $2,500 Push","published_at":"2025-03-30T14:39:54Z","slug":"Ethereum-Whales-In-Buying-Spree-As-Bulls-Attempt-2500-Push","currencies":[{"code":"ETH","title":"Ethereum","slug":"ethereum","url":"https:\/\/cryptopanic.com\/news\/ethereum\/"}],"id":20895504,"url":"https:\/\/cryptopanic.com\/news\/20895504\/Ethereum-Whales-In-Buying-Spree-As-Bulls-Attempt-2500-Push?mtm_campaign=API-OPA","created_at":"2025-03-30T14:39:54Z","votes":{"negative":0,"positive":0,"important":0,"liked":0,"disliked":0,"lol":0,"toxic":0,"saved":0,"comments":0}},{"kind":"news","domain":"decrypt.co","source":{"title":"Decrypt","region":"en","domain":"decrypt.co","path":null,"type":"feed"},"title":"Bull vs. Bear Markets: What They Mean for Bitcoin and Crypto","published_at":"2025-03-30T14:32:25Z","slug":"Bull-vs-Bear-Markets-What-They-Mean-for-Bitcoin-and-Crypto","currencies":[{"code":"BTC","title":"Bitcoin","slug":"bitcoin","url":"https:\/\/cryptopanic.com\/news\/bitcoin\/"}],"id":20895472,"url":"https:\/\/cryptopanic.com\/news\/20895472\/Bull-vs-Bear-Markets-What-They-Mean-for-Bitcoin-and-Crypto?mtm_campaign=API-OPA","created_at":"2025-03-30T14:32:25Z","votes":{"negative":0,"positive":0,"important":0,"liked":0,"disliked":0,"lol":0,"toxic":0,"saved":0,"comments":0}},{"kind":"news","domain":"dailyhodl.com","source":{"title":"The Daily Hodl","region":"en","domain":"dailyhodl.com","path":null,"type":"feed"},"title":"Investor Dan Tapiero Predicts Bitcoin Rallies, Says New Liquidity and Lower Rates Needed","published_at":"2025-03-30T14:30:45Z","slug":"Investor-Dan-Tapiero-Predicts-Bitcoin-Rallies-Says-New-Liquidity-and-Lower-Rates-Needed","currencies":[{"code":"BTC","title":"Bitcoin","slug":"bitcoin","url":"https:\/\/cryptopanic.com\/news\/bitcoin\/"}],"id":20895464,"url":"https:\/\/cryptopanic.com\/news\/20895464\/Investor-Dan-Tapiero-Predicts-Bitcoin-Rallies-Says-New-Liquidity-and-Lower-Rates-Needed?mtm_campaign=API-OPA","created_at":"2025-03-30T14:30:45Z","votes":{"negative":0,"positive":0,"important":0,"liked":0,"disliked":0,"lol":0,"toxic":0,"saved":0,"comments":0}},{"kind":"news","domain":"cryptodaily.co.uk","source":{"title":"CryptoDaily","region":"en","domain":"cryptodaily.co.uk","path":null,"type":"feed"},"title":"As the Ethereum and Solana Prices Turn Red, Traders Find a Haven in a Presale Gem for a Guaranteed 361% Return","published_at":"2025-03-30T14:12:29Z","slug":"As-the-Ethereum-and-Solana-Prices-Turn-Red-Traders-Find-a-Haven-in-a-Presale-Gem-for-a-Guaranteed-361-Return","currencies":[{"code":"ETH","title":"Ethereum","slug":"ethereum","url":"https:\/\/cryptopanic.com\/news\/ethereum\/"},{"code":"SOL","title":"Solana","slug":"solana","url":"https:\/\/cryptopanic.com\/news\/solana\/"}],"id":20895434,"url":"https:\/\/cryptopanic.com\/news\/20895434\/As-the-Ethereum-and-Solana-Prices-Turn-Red-Traders-Find-a-Haven-in-a-Presale-Gem-for-a-Guaranteed-361-Return?mtm_campaign=API-OPA","created_at":"2025-03-30T14:12:29Z","votes":{"negative":0,"positive":0,"important":0,"liked":0,"disliked":0,"lol":0,"toxic":0,"saved":0,"comments":0}}]}